\relax 
\providecommand\hyper@newdestlabel[2]{}
\catcode `"\active 
\providecommand\HyperFirstAtBeginDocument{\AtBeginDocument}
\HyperFirstAtBeginDocument{\ifx\hyper@anchor\@undefined
\global\let\oldcontentsline\contentsline
\gdef\contentsline#1#2#3#4{\oldcontentsline{#1}{#2}{#3}}
\global\let\oldnewlabel\newlabel
\gdef\newlabel#1#2{\newlabelxx{#1}#2}
\gdef\newlabelxx#1#2#3#4#5#6{\oldnewlabel{#1}{{#2}{#3}}}
\AtEndDocument{\ifx\hyper@anchor\@undefined
\let\contentsline\oldcontentsline
\let\newlabel\oldnewlabel
\fi}
\fi}
\global\let\hyper@last\relax 
\gdef\HyperFirstAtBeginDocument#1{#1}
\providecommand\HyField@AuxAddToFields[1]{}
\providecommand\HyField@AuxAddToCoFields[2]{}
\babel@aux{slovene}{}
\babel@aux{slovene}{}
\@writefile{toc}{\contentsline {subsection}{\numberline {0.1}Uvod.}{1}{subsection.0.1}}
\@writefile{toc}{\contentsline {subsection}{\numberline {0.2}Definicija problema.}{1}{subsection.0.2}}
\@writefile{toc}{\contentsline {subsection}{\numberline {0.3}Implementacija algoritma.}{1}{subsection.0.3}}
\@writefile{toc}{\contentsline {subsection}{\numberline {0.4}Prvi krog optimizacij (pred prvotno oddajo).}{2}{subsection.0.4}}
\@writefile{lof}{\contentsline {figure}{\numberline {1}{\ignorespaces Od\IeC {\v c}itek u\IeC {\v c}inkovitosti izvajanja programa.}}{2}{figure.1}}
\newlabel{slika1}{{1}{2}{Odčitek učinkovitosti izvajanja programa}{figure.1}{}}
\@writefile{lof}{\contentsline {figure}{\numberline {2}{\ignorespaces U\IeC {\v c}inkovitost izvajanja po optimizacijah.}}{3}{figure.2}}
\newlabel{slika1}{{2}{3}{Učinkovitost izvajanja po optimizacijah}{figure.2}{}}
\@writefile{toc}{\contentsline {subsection}{\numberline {0.5}Zadnjih pet.}{3}{subsection.0.5}}
\@writefile{toc}{\contentsline {subsection}{\numberline {0.6}Meritve in primerjava rezultatov.}{4}{subsection.0.6}}
\@writefile{lof}{\contentsline {figure}{\numberline {3}{\ignorespaces Meritve \IeC {\v c}asov izvajanja.}}{5}{figure.3}}
\newlabel{meritve1}{{3}{5}{Meritve časov izvajanja}{figure.3}{}}
\@writefile{toc}{\contentsline {section}{\numberline {1}Izjava o izdelavi doma\IeC {\v c}e naloge.}{6}{section.1}}
